[
  {
    "contrato": {
      "fundamentoLegal": "string",
      "numero": "string",
      "numeroProcesso": "string",
      "objeto": "string"
    },
    "dataAssinatura": "2020-02-10",
    "dataFimVigencia": "2020-02-10",
    "dataInicioVigencia": "2020-02-10",
    "dataPublicacaoDOU": "2020-02-10",
    "dimCompra": {
      "contatoResponsavel": "string",
      "numero": "string",
      "numeroProcesso": "string",
      "objeto": "string"
    },
    "fornecedor": {
      "cnae": {
        "classe": "string",
        "codigoClasse": "string",
        "codigoDivisao": "string",
        "codigoGrupo": "string",
        "codigoSecao": "string",
        "codigoSubclasse": "string",
        "divisao": "string",
        "grupo": "string",
        "secao": "string",
        "subclasse": "string"
      },
      "codigoFormatado": "string",
      "complementoEndereco": "string",
      "dataAbertura": "2020-02-10",
      "descricaoLogradouro": "string",
      "enderecoEletronico": "string",
      "localidadePessoa": {
        "descricao": "string"
      },
      "municipio": {
        "codigoIBGE": "string",
        "nomeIBGE": "string",
        "nomeIBGEsemAcento": "string",
        "pais": "string",
        "uf": {
          "nome": "string",
          "sigla": "string"
        }
      },
      "naturezaJuridica": {
        "codigo": "string",
        "codigoTipo": "string",
        "descricao": "string",
        "descricaoTipo": "string"
      },
      "nome": "string",
      "nomeBairro": "string",
      "nomeFantasiaReceita": "string",
      "numeroCEP": "string",
      "numeroEndereco": "string",
      "numeroInscricaoSocial": "string",
      "numeroTelefone": "string",
      "pessoaFisica": true,
      "pessoaJuridica": true,
      "razaoSocialReceita": "string",
      "tipoCodigo": "string",
      "tipoPessoa": {
        "descricao": "string"
      }
    },
    "id": 0,
    "situacaoContrato": {
      "descricao": "string"
    },
    "unidadeGestora": {
      "codigo": "string",
      "descricaoPoder": "string",
      "nome": "string",
      "nomeSemAcento": "string",
      "orgaoMaximo": {
        "codigo": "string",
        "nome": "string",
        "sigla": "string"
      },
      "orgaoVinculado": {
        "cnpj": "string",
        "codigoSIAFI": "string",
        "nome": "string",
        "sigla": "string"
      }
    },
    "unidadeGestoraCompras": {
      "codigo": "string",
      "descricaoPoder": "string",
      "existeFatoDespesa": true,
      "existeFatoReceita": true,
      "nome": "string",
      "nomeSemAcento": "string",
      "orgaoMaximo": {
        "codigo": "string",
        "nome": "string",
        "sigla": "string"
      },
      "orgaoVinculado": {
        "cnpj": "string",
        "codigoSIAFI": "string",
        "naturezaJuridica": {
          "codigo": "string",
          "codigoTipo": "string",
          "descricao": "string",
          "descricaoTipo": "string"
        },
        "nome": "string",
        "sigla": "string"
      }
    },
    "valorFinalCompra": 0,
    "valorInicialCompra": 0
  }
]

