method,uri,dateTimeISO,status,responseBytes,contentType,createUriMs,setupMs,requestMs,parseMs,jsonRootArrayMembers,jsonRootObjectMembers,parsedTriples,exception
GET,http://www.transparencia.gov.br/api-de-dados/orgaos-siafi?descricao=Universidade+Federal+de+Santa+Catarina&pagina=1,2020-02-16T04:40:39-03:00,200,-1,application/json;charset=UTF-8,0.082,0.208,228.939,0.193,1,-1,3,
GET,http://www.transparencia.gov.br/api-de-dados/contratos?dataInicial=01%2F01%2F2019&dataFinal=31%2F12%2F2019&codigoOrgao=26246&pagina=1,2020-02-16T04:40:40-03:00,200,-1,application/json;charset=UTF-8,0.282,0.296,238.943,3.804,15,-1,693,
GET,http://www.transparencia.gov.br/api-de-dados/contratos/id?id=54036627,2020-02-16T04:40:41-03:00,200,-1,application/json;charset=UTF-8,0.068,0.219,181.331,0.694,-1,14,78,
GET,http://www.transparencia.gov.br/api-de-dados/contratos/id?id=51035648,2020-02-16T04:40:42-03:00,200,-1,application/json;charset=UTF-8,0.071,0.314,214.891,0.698,-1,14,79,
GET,http://www.transparencia.gov.br/api-de-dados/contratos/id?id=52434981,2020-02-16T04:40:44-03:00,200,-1,application/json;charset=UTF-8,0.068,0.298,190.251,0.735,-1,14,79,
GET,http://www.transparencia.gov.br/api-de-dados/contratos/id?id=48336034,2020-02-16T04:40:45-03:00,200,-1,application/json;charset=UTF-8,0.065,0.277,183.489,0.657,-1,14,79,
GET,http://www.transparencia.gov.br/api-de-dados/contratos/id?id=50536023,2020-02-16T04:40:46-03:00,200,-1,application/json;charset=UTF-8,0.066,0.314,236.096,0.64,-1,14,79,
GET,http://www.transparencia.gov.br/api-de-dados/contratos/id?id=54136323,2020-02-16T04:40:47-03:00,200,-1,application/json;charset=UTF-8,0.064,0.278,223.492,0.622,-1,14,79,
GET,http://www.transparencia.gov.br/api-de-dados/contratos/id?id=51035654,2020-02-16T04:40:49-03:00,200,-1,application/json;charset=UTF-8,0.085,0.292,185.837,0.745,-1,14,79,
GET,http://www.transparencia.gov.br/api-de-dados/contratos/id?id=48636146,2020-02-16T04:40:50-03:00,200,-1,application/json;charset=UTF-8,0.069,0.294,184.744,0.643,-1,14,79,
GET,http://www.transparencia.gov.br/api-de-dados/contratos/id?id=48735910,2020-02-16T04:40:51-03:00,200,-1,application/json;charset=UTF-8,0.067,0.287,172.432,0.635,-1,14,79,
GET,http://www.transparencia.gov.br/api-de-dados/contratos/id?id=50235250,2020-02-16T04:40:52-03:00,200,-1,application/json;charset=UTF-8,0.07,0.301,204.766,0.639,-1,14,79,
GET,http://www.transparencia.gov.br/api-de-dados/contratos/id?id=49635430,2020-02-16T04:40:53-03:00,200,-1,application/json;charset=UTF-8,0.07,0.293,174.671,0.643,-1,14,83,
GET,http://www.transparencia.gov.br/api-de-dados/contratos/id?id=54634741,2020-02-16T04:40:54-03:00,200,-1,application/json;charset=UTF-8,0.069,0.294,180.953,0.662,-1,14,79,
GET,http://www.transparencia.gov.br/api-de-dados/contratos/id?id=54435175,2020-02-16T04:40:56-03:00,200,-1,application/json;charset=UTF-8,0.069,0.301,177.823,0.644,-1,14,79,
GET,http://www.transparencia.gov.br/api-de-dados/contratos/id?id=48836520,2020-02-16T04:40:57-03:00,200,-1,application/json;charset=UTF-8,0.068,0.292,192.9,0.646,-1,14,79,
GET,http://www.transparencia.gov.br/api-de-dados/contratos/id?id=49936179,2020-02-16T04:40:58-03:00,200,-1,application/json;charset=UTF-8,0.07,0.3,231.008,0.646,-1,14,79,
GET,http://www.transparencia.gov.br/api-de-dados/contratos?dataInicial=01%2F01%2F2019&dataFinal=31%2F12%2F2019&codigoOrgao=26246&pagina=2,2020-02-16T04:40:59-03:00,200,-1,application/json;charset=UTF-8,0.25,0.295,203.201,3.769,15,-1,690,
GET,http://www.transparencia.gov.br/api-de-dados/contratos/id?id=57935569,2020-02-16T04:41:00-03:00,200,-1,application/json;charset=UTF-8,0.07,0.292,195.47,0.627,-1,14,79,
GET,http://www.transparencia.gov.br/api-de-dados/contratos/id?id=54935079,2020-02-16T04:41:02-03:00,200,-1,application/json;charset=UTF-8,0.067,0.283,184.74,0.642,-1,14,79,
GET,http://www.transparencia.gov.br/api-de-dados/contratos/id?id=61235095,2020-02-16T04:41:03-03:00,200,-1,application/json;charset=UTF-8,0.066,0.292,169.113,0.638,-1,14,79,
GET,http://www.transparencia.gov.br/api-de-dados/contratos/id?id=54634741,2020-02-16T04:41:04-03:00,200,-1,application/json;charset=UTF-8,0.072,0.3,180.791,0.665,-1,14,79,
GET,http://www.transparencia.gov.br/api-de-dados/contratos/id?id=61736131,2020-02-16T04:41:05-03:00,200,-1,application/json;charset=UTF-8,0.136,0.301,219.221,0.633,-1,14,79,
GET,http://www.transparencia.gov.br/api-de-dados/contratos/id?id=61836252,2020-02-16T04:41:06-03:00,200,-1,application/json;charset=UTF-8,0.07,0.292,189.887,0.699,-1,14,79,
GET,http://www.transparencia.gov.br/api-de-dados/contratos/id?id=60435116,2020-02-16T04:41:08-03:00,200,-1,application/json;charset=UTF-8,0.069,0.297,168.372,0.612,-1,14,79,
GET,http://www.transparencia.gov.br/api-de-dados/contratos/id?id=61435604,2020-02-16T04:41:09-03:00,200,-1,application/json;charset=UTF-8,0.065,0.278,177.963,0.656,-1,14,79,
GET,http://www.transparencia.gov.br/api-de-dados/contratos/id?id=56036996,2020-02-16T04:41:10-03:00,200,-1,application/json;charset=UTF-8,0.07,0.296,176.893,0.629,-1,14,79,
GET,http://www.transparencia.gov.br/api-de-dados/contratos/id?id=58834977,2020-02-16T04:41:11-03:00,200,-1,application/json;charset=UTF-8,0.064,0.283,219.285,0.659,-1,14,79,
GET,http://www.transparencia.gov.br/api-de-dados/contratos/id?id=58834986,2020-02-16T04:41:12-03:00,200,-1,application/json;charset=UTF-8,0.07,0.297,217.538,0.679,-1,14,79,
GET,http://www.transparencia.gov.br/api-de-dados/contratos/id?id=57735067,2020-02-16T04:41:14-03:00,200,-1,application/json;charset=UTF-8,0.067,0.282,214.747,0.635,-1,14,79,
GET,http://www.transparencia.gov.br/api-de-dados/contratos/id?id=57434791,2020-02-16T04:41:15-03:00,200,-1,application/json;charset=UTF-8,0.064,0.279,181.232,0.627,-1,14,79,
GET,http://www.transparencia.gov.br/api-de-dados/contratos/id?id=56635866,2020-02-16T04:41:16-03:00,200,-1,application/json;charset=UTF-8,0.068,0.29,187.931,0.625,-1,14,79,
GET,http://www.transparencia.gov.br/api-de-dados/contratos/id?id=61536114,2020-02-16T04:41:17-03:00,200,-1,application/json;charset=UTF-8,0.069,0.292,190.334,0.683,-1,14,79,
GET,http://www.transparencia.gov.br/api-de-dados/contratos?dataInicial=01%2F01%2F2019&dataFinal=31%2F12%2F2019&codigoOrgao=26246&pagina=3,2020-02-16T04:41:18-03:00,200,-1,application/json;charset=UTF-8,0.258,0.33,198.818,0.507,1,-1,46,
GET,http://www.transparencia.gov.br/api-de-dados/contratos/id?id=61935944,2020-02-16T04:41:20-03:00,200,-1,application/json;charset=UTF-8,0.069,0.292,237.003,0.655,-1,14,79,
GET,http://www.transparencia.gov.br/api-de-dados/contratos?dataInicial=01%2F01%2F2019&dataFinal=31%2F12%2F2019&codigoOrgao=26246&pagina=4,2020-02-16T04:41:21-03:00,200,-1,application/json;charset=UTF-8,0.249,0.286,240.59,0.079,0,-1,0,
GET,http://www.transparencia.gov.br/api-de-dados/orgaos-siafi?descricao=Universidade+Federal+de+Santa+Catarina&pagina=2,2020-02-16T04:41:22-03:00,200,-1,application/json;charset=UTF-8,0.104,0.287,192.309,0.061,0,-1,0,
GET,http://www.transparencia.gov.br/api-de-dados/licitacoes/por-uasg-modalidade-numero?codigoUASG=153163&numero=006442019&codigoModalidade=6,2020-02-16T04:41:23-03:00,200,-1,application/json;charset=UTF-8,0.188,0.295,191.625,0.535,1,-1,44,
GET,http://www.transparencia.gov.br/api-de-dados/licitacoes/por-uasg-modalidade-numero?codigoUASG=153163&numero=006272018&codigoModalidade=6,2020-02-16T04:41:24-03:00,200,-1,application/json;charset=UTF-8,0.186,0.288,207.964,0.5,1,-1,44,
GET,http://www.transparencia.gov.br/api-de-dados/licitacoes/por-uasg-modalidade-numero?codigoUASG=153163&numero=006102018&codigoModalidade=6,2020-02-16T04:41:26-03:00,200,-1,application/json;charset=UTF-8,0.186,0.296,210.761,0.48,1,-1,44,
GET,http://www.transparencia.gov.br/api-de-dados/licitacoes/por-uasg-modalidade-numero?codigoUASG=153163&numero=006042018&codigoModalidade=6,2020-02-16T04:41:27-03:00,200,-1,application/json;charset=UTF-8,0.18,0.343,206.304,0.459,1,-1,44,
GET,http://www.transparencia.gov.br/api-de-dados/licitacoes/por-uasg-modalidade-numero?codigoUASG=153163&numero=002362019&codigoModalidade=6,2020-02-16T04:41:28-03:00,200,-1,application/json;charset=UTF-8,0.177,0.297,224.424,0.475,1,-1,44,
GET,http://www.transparencia.gov.br/api-de-dados/licitacoes/por-uasg-modalidade-numero?codigoUASG=153163&numero=003582019&codigoModalidade=6,2020-02-16T04:41:29-03:00,200,-1,application/json;charset=UTF-8,0.183,0.298,189.418,0.493,1,-1,44,
GET,http://www.transparencia.gov.br/api-de-dados/licitacoes/por-uasg-modalidade-numero?codigoUASG=150232&numero=002532019&codigoModalidade=6,2020-02-16T04:41:30-03:00,200,-1,application/json;charset=UTF-8,0.184,0.292,197.175,0.504,1,-1,44,
GET,http://www.transparencia.gov.br/api-de-dados/licitacoes/por-uasg-modalidade-numero?codigoUASG=153163&numero=006062018&codigoModalidade=6,2020-02-16T04:41:32-03:00,200,-1,application/json;charset=UTF-8,0.182,0.291,207.962,0.469,1,-1,44,
GET,http://www.transparencia.gov.br/api-de-dados/licitacoes/por-uasg-modalidade-numero?codigoUASG=153163&numero=002952019&codigoModalidade=6,2020-02-16T04:41:33-03:00,200,-1,application/json;charset=UTF-8,0.185,0.292,237.263,0.486,1,-1,44,
GET,http://www.transparencia.gov.br/api-de-dados/licitacoes/por-uasg-modalidade-numero?codigoUASG=153163&numero=005322019&codigoModalidade=6,2020-02-16T04:41:34-03:00,200,-1,application/json;charset=UTF-8,0.185,0.308,190.663,0.459,1,-1,44,
GET,http://www.transparencia.gov.br/api-de-dados/licitacoes/por-uasg-modalidade-numero?codigoUASG=153163&numero=005332019&codigoModalidade=6,2020-02-16T04:41:35-03:00,200,-1,application/json;charset=UTF-8,0.174,0.28,188.388,0.467,1,-1,44,
GET,http://www.transparencia.gov.br/api-de-dados/licitacoes/por-uasg-modalidade-numero?codigoUASG=153163&numero=006292019&codigoModalidade=6,2020-02-16T04:41:36-03:00,200,-1,application/json;charset=UTF-8,0.197,0.284,192.242,0.486,1,-1,44,
GET,http://www.transparencia.gov.br/api-de-dados/licitacoes/por-uasg-modalidade-numero?codigoUASG=153163&numero=006212019&codigoModalidade=6,2020-02-16T04:41:38-03:00,200,-1,application/json;charset=UTF-8,0.207,0.299,188.257,0.458,1,-1,44,
GET,http://www.transparencia.gov.br/api-de-dados/licitacoes/por-uasg-modalidade-numero?codigoUASG=153163&numero=005312019&codigoModalidade=6,2020-02-16T04:41:39-03:00,200,-1,application/json;charset=UTF-8,0.194,0.306,267.976,0.459,1,-1,44,
GET,http://www.transparencia.gov.br/api-de-dados/licitacoes/por-uasg-modalidade-numero?codigoUASG=153163&numero=006062018&codigoModalidade=6,2020-02-16T04:41:40-03:00,200,-1,application/json;charset=UTF-8,0.219,0.316,247.837,0.493,1,-1,44,
GET,http://www.transparencia.gov.br/api-de-dados/licitacoes/por-uasg-modalidade-numero?codigoUASG=153163&numero=006092018&codigoModalidade=6,2020-02-16T04:41:41-03:00,200,-1,application/json;charset=UTF-8,0.226,0.322,192.624,0.489,1,-1,44,
GET,http://www.transparencia.gov.br/api-de-dados/licitacoes/por-uasg-modalidade-numero?codigoUASG=153163&numero=006242018&codigoModalidade=6,2020-02-16T04:41:43-03:00,200,-1,application/json;charset=UTF-8,0.217,0.295,232.192,0.482,1,-1,44,
GET,http://www.transparencia.gov.br/api-de-dados/licitacoes/por-uasg-modalidade-numero?codigoUASG=153163&numero=003572019&codigoModalidade=6,2020-02-16T04:41:44-03:00,200,-1,application/json;charset=UTF-8,0.182,0.297,189.435,0.473,1,-1,44,
GET,http://www.transparencia.gov.br/api-de-dados/licitacoes/por-uasg-modalidade-numero?codigoUASG=153163&numero=006032018&codigoModalidade=6,2020-02-16T04:41:45-03:00,200,-1,application/json;charset=UTF-8,0.188,0.283,200.25,0.454,1,-1,44,
GET,http://www.transparencia.gov.br/api-de-dados/licitacoes/por-uasg-modalidade-numero?codigoUASG=153163&numero=003602019&codigoModalidade=6,2020-02-16T04:41:46-03:00,200,-1,application/json;charset=UTF-8,0.189,0.293,190.326,0.467,1,-1,44,
GET,http://www.transparencia.gov.br/api-de-dados/licitacoes/por-uasg-modalidade-numero?codigoUASG=153163&numero=006022018&codigoModalidade=6,2020-02-16T04:41:47-03:00,200,-1,application/json;charset=UTF-8,0.18,0.292,204.163,0.48,1,-1,44,
GET,http://www.transparencia.gov.br/api-de-dados/licitacoes/por-uasg-modalidade-numero?codigoUASG=153163&numero=006052018&codigoModalidade=6,2020-02-16T04:41:49-03:00,200,-1,application/json;charset=UTF-8,0.184,0.336,243.617,0.475,1,-1,44,
GET,http://www.transparencia.gov.br/api-de-dados/licitacoes/por-uasg-modalidade-numero?codigoUASG=150232&numero=001012019&codigoModalidade=7,2020-02-16T04:41:50-03:00,200,-1,application/json;charset=UTF-8,0.198,0.299,186.311,0.497,1,-1,44,
GET,http://www.transparencia.gov.br/api-de-dados/licitacoes/por-uasg-modalidade-numero?codigoUASG=150232&numero=003812018&codigoModalidade=7,2020-02-16T04:41:51-03:00,200,-1,application/json;charset=UTF-8,0.314,0.297,230.837,0.484,1,-1,44,
GET,http://www.transparencia.gov.br/api-de-dados/licitacoes/por-uasg-modalidade-numero?codigoUASG=150232&numero=003812018&codigoModalidade=7,2020-02-16T04:41:52-03:00,200,-1,application/json;charset=UTF-8,0.166,0.291,192.195,0.454,1,-1,44,
GET,http://www.transparencia.gov.br/api-de-dados/licitacoes/por-uasg-modalidade-numero?codigoUASG=150232&numero=003812018&codigoModalidade=7,2020-02-16T04:41:53-03:00,200,-1,application/json;charset=UTF-8,0.177,0.297,191.602,0.459,1,-1,44,
GET,http://www.transparencia.gov.br/api-de-dados/licitacoes/por-uasg-modalidade-numero?codigoUASG=150232&numero=001312019&codigoModalidade=7,2020-02-16T04:41:55-03:00,200,-1,application/json;charset=UTF-8,0.178,0.294,249.509,0.461,1,-1,44,
GET,http://www.transparencia.gov.br/api-de-dados/licitacoes/por-uasg-modalidade-numero?codigoUASG=150232&numero=000322019&codigoModalidade=5,2020-02-16T04:41:56-03:00,200,-1,application/json;charset=UTF-8,0.178,0.325,230.643,0.464,1,-1,45,
