r2,r3,b,c,d,m,n,t,u,w,x,y1,x1,y,y2,x2,z,w1,y3,x3,x4,r1
27/08/2019,26/09/2019,49936179,6,Dispensa de Licitação,https://alexishuf.bitbucket.io/dexa-2020/modalidades.ttl#DispensaDeLicitacao,005332019,26246,153163,http://www.transparencia.gov.br/api-de-dados/contratos/id?id=49936179/49936179,49936179,8e967a9c-a522-4549-8753-76b4cb115420,bda81eae-2566-431f-9fa7-e493362c461b,266371014,c82ee931-0112-4a81-9900-f2036977689b,7b624725-b714-4025-8863-a048aa76799f,bd8e7876-e4aa-4433-818b-2e32d02d16c1,8724dcad-d246-41ff-ac42-4c0dec6c241f,a36c8c31-50ce-4267-b24c-f216cd6ebc2d,9bc5634a-af46-467b-a378-e12513d9a1ed,bda81eae-2566-431f-9fa7-e493362c461b,266371014
04/12/2018,29/03/2019,48336034,6,Dispensa de Licitação,https://alexishuf.bitbucket.io/dexa-2020/modalidades.ttl#DispensaDeLicitacao,006102018,26246,153163,http://www.transparencia.gov.br/api-de-dados/contratos/id?id=48336034/48336034,48336034,8853de19-d7b2-4bb9-a6c4-a5e6808491ac,28f1fd7d-ae86-47f4-a008-9426b8f3b85d,268370792,d33bb578-9926-404d-9975-a77cd4659b39,b3b47f20-716f-4a49-b18a-b03aed20827c,bd8e7876-e4aa-4433-818b-2e32d02d16c1,aa5131a1-430f-4a2a-a5a3-e38242a1271e,095481de-18e2-45ea-a50b-ed8dd487195e,e7b2a7c4-fd30-4047-982f-cd82e157ed46,28f1fd7d-ae86-47f4-a008-9426b8f3b85d,268370792
04/12/2018,21/03/2019,50536023,6,Dispensa de Licitação,https://alexishuf.bitbucket.io/dexa-2020/modalidades.ttl#DispensaDeLicitacao,006042018,26246,153163,http://www.transparencia.gov.br/api-de-dados/contratos/id?id=50536023/50536023,50536023,370df593-f28e-4681-a465-91f9bebaa2a8,40eafda2-ee97-469b-b7a8-cc84056e5aab,262379922,018675e1-b314-43eb-abc7-8077ec929394,b928daf3-cf3a-45f5-ad99-0e822169a397,bd8e7876-e4aa-4433-818b-2e32d02d16c1,46f071b7-f0f0-4343-ad9f-1408187dcf28,18324400-d508-442d-9ba4-a02f20f95650,5d87b644-8695-4417-8d79-afc97653966c,40eafda2-ee97-469b-b7a8-cc84056e5aab,262379922
27/06/2019,15/07/2019,48735910,6,Dispensa de Licitação,https://alexishuf.bitbucket.io/dexa-2020/modalidades.ttl#DispensaDeLicitacao,003582019,26246,153163,http://www.transparencia.gov.br/api-de-dados/contratos/id?id=48735910/48735910,48735910,b93e5033-f42a-4736-9ebd-9e57ae0867c9,e525111e-9691-43b8-adfe-e7da24a1a440,260271517,b4c7d2e9-72eb-478a-bbdb-01f1ec7a0af9,cdfc4af3-513a-44f6-bf82-53b88b5b867a,bd8e7876-e4aa-4433-818b-2e32d02d16c1,152e3778-9202-45d4-a29b-613922ddea31,b3e76815-08fd-4197-b512-bce4c095f106,b41a9f9b-e741-418a-838e-6249e7615fb2,e525111e-9691-43b8-adfe-e7da24a1a440,260271517
28/05/2019,14/06/2019,54435175,6,Dispensa de Licitação,https://alexishuf.bitbucket.io/dexa-2020/modalidades.ttl#DispensaDeLicitacao,002952019,26246,153163,http://www.transparencia.gov.br/api-de-dados/contratos/id?id=54435175/54435175,54435175,e7dce93b-e2b4-48c3-9948-8edc2c9c81d7,a48b05f5-9c80-48ec-91e5-1a204612ef27,264147648,aeabcddb-bb89-4653-bc23-583dd30db03e,e72407d7-eba7-4d56-afb6-fe7c09743173,bd8e7876-e4aa-4433-818b-2e32d02d16c1,188caf21-0f0e-4eeb-9684-98aea795c9bb,188625a6-190d-4f05-8157-9521e99b3d48,2f9d4940-7d3e-4200-852f-13d53b65e8f6,a48b05f5-9c80-48ec-91e5-1a204612ef27,264147648
27/08/2019,01/10/2019,48836520,6,Dispensa de Licitação,https://alexishuf.bitbucket.io/dexa-2020/modalidades.ttl#DispensaDeLicitacao,005322019,26246,153163,http://www.transparencia.gov.br/api-de-dados/contratos/id?id=48836520/48836520,48836520,28d3b446-35ae-4605-9222-21c2b8cbdbcb,86d728e9-ae79-4126-9666-cf0b837ea92a,269954982,899ab9ef-3f0b-4d11-8c6b-ed717d530d8b,085fb2bb-6b76-4b98-b8a7-88515d1e8df1,bd8e7876-e4aa-4433-818b-2e32d02d16c1,8a8056ec-e2bf-494d-b2f6-ea88b7245ab1,5a0376b6-871f-43b6-91d3-58aa2d034a00,f972e42b-a5fd-4214-8f1c-3ce01aebb87e,86d728e9-ae79-4126-9666-cf0b837ea92a,269954982
27/05/2019,29/05/2019,50235250,6,Dispensa de Licitação,https://alexishuf.bitbucket.io/dexa-2020/modalidades.ttl#DispensaDeLicitacao,002532019,26246,150232,http://www.transparencia.gov.br/api-de-dados/contratos/id?id=50235250/50235250,50235250,80d9f06a-3219-4281-87be-a4484d00ddae,1a73bcff-573f-4e36-b983-9ed1ee44230e,272272245,2e3b1719-d541-4e7b-b077-59fe7da9ed99,ccf9a4f7-1992-4067-a553-3a58d7113244,bd8e7876-e4aa-4433-818b-2e32d02d16c1,d8e9effc-d7f4-42b5-b0ab-3f1b6bd1a11b,74125344-8567-4229-894f-19db1ceec42b,8b37de05-4f8a-4a34-b711-7ccc506919ef,1a73bcff-573f-4e36-b983-9ed1ee44230e,272272245
06/05/2019,20/05/2019,48636146,6,Dispensa de Licitação,https://alexishuf.bitbucket.io/dexa-2020/modalidades.ttl#DispensaDeLicitacao,002362019,26246,153163,http://www.transparencia.gov.br/api-de-dados/contratos/id?id=48636146/48636146,48636146,419d2d86-cc39-47e3-bb8e-c922196773ff,a340996e-ce94-498e-837b-9530444fec52,262471823,3d7a6c24-7721-46a1-bc0c-77d7c775c6d1,3be88fa6-c755-456a-83c2-5366a17eb4a9,bd8e7876-e4aa-4433-818b-2e32d02d16c1,a65dd8aa-a56d-457d-856e-0d04416f608e,7dc7adb1-4aaa-42e7-ab37-acc81cca4c77,6f98181e-60ab-404b-ab5e-8285fa03faeb,a340996e-ce94-498e-837b-9530444fec52,262471823
26/12/2018,08/04/2019,52434981,6,Dispensa de Licitação,https://alexishuf.bitbucket.io/dexa-2020/modalidades.ttl#DispensaDeLicitacao,006272018,26246,153163,http://www.transparencia.gov.br/api-de-dados/contratos/id?id=52434981/52434981,52434981,802b7c94-b851-400e-8160-88a8e904865e,23a9c45d-92a2-4371-b42f-fb85845c3008,266563627,00c33a5a-0c2e-4331-9b7f-be28c1ff8d96,7358cf79-29b6-4327-9c3b-37a2b2f0cf48,bd8e7876-e4aa-4433-818b-2e32d02d16c1,1f62ab2b-e1bc-4d39-8a42-bcca5dc7d100,852d9051-8329-4127-91e4-ecf6cda87bb6,1e8a0c8f-541c-447c-8605-7a30f94625f5,23a9c45d-92a2-4371-b42f-fb85845c3008,266563627
04/12/2018,10/01/2019,54634741,6,Dispensa de Licitação,https://alexishuf.bitbucket.io/dexa-2020/modalidades.ttl#DispensaDeLicitacao,006062018,26246,153163,http://www.transparencia.gov.br/api-de-dados/contratos/id?id=54634741/54634741,54634741,e3a4b870-2454-4d72-9501-500d556ba2f3,56afea0d-97e5-48e3-be26-5b940a9da9dd,270079639,962a7c6a-5b6b-4ba4-8420-ff687e9371ff,f31f2db9-3c98-47c2-b5f7-2d40f2746979,bd8e7876-e4aa-4433-818b-2e32d02d16c1,6ae66d4d-99e1-44a5-9336-3a31ec517d71,fc5c316a-df40-4613-bbc7-5fc2b757ed32,41d823f2-0e5a-4b34-94b9-8cd349b54d09,56afea0d-97e5-48e3-be26-5b940a9da9dd,270079639
20/09/2019,07/10/2019,51035648,6,Dispensa de Licitação,https://alexishuf.bitbucket.io/dexa-2020/modalidades.ttl#DispensaDeLicitacao,006442019,26246,153163,http://www.transparencia.gov.br/api-de-dados/contratos/id?id=51035648/51035648,51035648,4e3acbf9-9958-4bb3-9909-4a72ba0663c3,24c87520-9ad3-4c44-9119-4dcbb4ecc6c8,265755788,f8799bb1-244b-4738-a05e-316f09e3a263,495132d5-9ae9-4a33-9f2c-9a08d9ba9451,bd8e7876-e4aa-4433-818b-2e32d02d16c1,241ece3f-e262-4e44-9c2b-892c895eb3ca,ed9e2c2c-39b8-4309-b9aa-bff36d097c3d,0e080587-4b86-4cd2-898a-66752f2a6faa,24c87520-9ad3-4c44-9119-4dcbb4ecc6c8,265755788
04/12/2018,15/01/2019,56635866,6,Dispensa de Licitação,https://alexishuf.bitbucket.io/dexa-2020/modalidades.ttl#DispensaDeLicitacao,006022018,26246,153163,http://www.transparencia.gov.br/api-de-dados/contratos/id?id=56635866/56635866,56635866,79001d5a-3e23-4571-bf9c-85beaf36ecde,ccfd92a4-5247-43ac-bd06-a062d6c54eb2,267679761,27c6ff87-0b86-4a98-ae6f-fba17a038f0f,95f20c17-2365-42b8-a928-ac1d6d012ab0,bd8e7876-e4aa-4433-818b-2e32d02d16c1,54714882-eec7-464a-bb07-5e276e569ac2,c268e324-d80f-4732-8287-2b11da2a24c0,ff209331-70f1-4966-9378-ea70ad179b9f,ccfd92a4-5247-43ac-bd06-a062d6c54eb2,267679761
04/12/2018,14/02/2019,61736131,6,Dispensa de Licitação,https://alexishuf.bitbucket.io/dexa-2020/modalidades.ttl#DispensaDeLicitacao,006092018,26246,153163,http://www.transparencia.gov.br/api-de-dados/contratos/id?id=61736131/61736131,61736131,c03c9f55-e630-4b0b-9fcd-43c4d4dff161,f1464ebb-03f0-4177-9175-0f3d6431c8e5,259454613,bf28cfc0-420b-4210-b44b-d3f13ee456cc,ff7ce9b1-6805-4d3d-9af7-7e702b4caec0,bd8e7876-e4aa-4433-818b-2e32d02d16c1,446028ff-c336-4eed-8c86-20b2ed547efb,fd173063-1c92-4c2c-8209-0fe7ba082071,65752ec0-4727-4169-b20f-f044d787c15b,f1464ebb-03f0-4177-9175-0f3d6431c8e5,259454613
18/09/2019,07/10/2019,57935569,6,Dispensa de Licitação,https://alexishuf.bitbucket.io/dexa-2020/modalidades.ttl#DispensaDeLicitacao,006292019,26246,153163,http://www.transparencia.gov.br/api-de-dados/contratos/id?id=57935569/57935569,57935569,1105c364-3178-478d-a152-58bf88e286e1,9980dcf8-d5a8-43a9-8cce-c6b4edcb2779,260047629,1eb807f5-e986-402d-ac9b-4dc4777ae147,e11b5fd8-25df-4075-be47-7d97c9abfb53,bd8e7876-e4aa-4433-818b-2e32d02d16c1,621c399e-fe78-436c-b921-4fee258c7075,3cb1279c-5ccf-44cc-9b75-b4e2b2e8f60e,e879b752-b9fb-4f90-9b77-94b5c95a0960,9980dcf8-d5a8-43a9-8cce-c6b4edcb2779,260047629
27/06/2019,11/07/2019,57735067,6,Dispensa de Licitação,https://alexishuf.bitbucket.io/dexa-2020/modalidades.ttl#DispensaDeLicitacao,003602019,26246,153163,http://www.transparencia.gov.br/api-de-dados/contratos/id?id=57735067/57735067,57735067,c5a3a7f8-5e46-41bf-a63f-2901b26ad869,bf5f29d5-a58e-449f-aa25-c3cf5bb9a1c7,261272176,444cf64e-e31f-40d0-9183-6cb53aabda57,4fad0815-8073-4f0f-91b7-7eab262c0d98,bd8e7876-e4aa-4433-818b-2e32d02d16c1,bb857258-f0b2-4c99-8b4b-a9292f544fe0,0be88fa4-9d3e-4d2f-8ac0-310b82d8ffa8,e31519e1-ac53-425e-a97c-9fb4bdd53793,bf5f29d5-a58e-449f-aa25-c3cf5bb9a1c7,261272176
18/09/2019,21/10/2019,54935079,6,Dispensa de Licitação,https://alexishuf.bitbucket.io/dexa-2020/modalidades.ttl#DispensaDeLicitacao,006212019,26246,153163,http://www.transparencia.gov.br/api-de-dados/contratos/id?id=54935079/54935079,54935079,66cfe782-cd84-4cf5-a285-02dd0ac7ff63,2f41f778-79a8-4d9f-b646-3ce92e379041,263455442,f92499dc-51b1-42fc-92ec-78bd9bf985e4,1bc2a94f-bb6a-4a8e-a060-3b68c71ed155,bd8e7876-e4aa-4433-818b-2e32d02d16c1,74d3c4fa-ebb4-40d9-99ec-29ecd634fc9b,32ad0233-5cad-4fb6-8257-d682616506d0,0baa39cf-8e4a-44c8-8087-19d5e6720188,2f41f778-79a8-4d9f-b646-3ce92e379041,263455442
21/12/2018,15/03/2019,61836252,6,Dispensa de Licitação,https://alexishuf.bitbucket.io/dexa-2020/modalidades.ttl#DispensaDeLicitacao,006242018,26246,153163,http://www.transparencia.gov.br/api-de-dados/contratos/id?id=61836252/61836252,61836252,8244ab14-a5a5-47d5-81fe-cf6d39776e47,539ede3d-56dd-498e-bbe2-24d196030c5c,271647568,5038bcdb-31f9-4b1c-bba2-a355042b3e8c,286773d7-89c2-4866-948d-846820bc8c16,bd8e7876-e4aa-4433-818b-2e32d02d16c1,1f25aa65-1f9a-4ab4-9297-15fc38ab0a81,9f2e9cb0-dd6a-4611-ba53-2634d2b698a1,7425f37e-35b0-4a23-83b6-858d02bd3831,539ede3d-56dd-498e-bbe2-24d196030c5c,271647568
27/08/2019,01/10/2019,61235095,6,Dispensa de Licitação,https://alexishuf.bitbucket.io/dexa-2020/modalidades.ttl#DispensaDeLicitacao,005312019,26246,153163,http://www.transparencia.gov.br/api-de-dados/contratos/id?id=61235095/61235095,61235095,e138a28d-8cc2-4783-a06d-2a4a8f212f89,6b12f77d-11e5-4eaf-910c-f5fa19db9169,267379827,483c38ac-9521-4bb7-af72-745c9da923a2,2b199220-bf05-4b11-8ef9-d81250cbfd64,bd8e7876-e4aa-4433-818b-2e32d02d16c1,023281ac-73bf-40f7-8e5e-7edd4a87b113,3eef74da-1be6-4a06-b084-7fcb2f1046b7,e9ce3a7d-1787-4644-95f4-04343b3c1380,6b12f77d-11e5-4eaf-910c-f5fa19db9169,267379827
04/12/2018,10/01/2019,54634741,6,Dispensa de Licitação,https://alexishuf.bitbucket.io/dexa-2020/modalidades.ttl#DispensaDeLicitacao,006062018,26246,153163,http://www.transparencia.gov.br/api-de-dados/contratos/id?id=54634741/54634741,54634741,45d62eae-d84c-4ab9-b2b5-79b91124a675,e0fda041-2c8c-43cc-9d48-7244628c125e,270079639,e2dd3e39-785c-48f2-9665-6c30e0ce0763,dec5aed0-dadd-495e-9421-30b827880cce,bd8e7876-e4aa-4433-818b-2e32d02d16c1,72d20962-fe46-49a6-94b9-9801d6a8f3b0,e353ce5d-841d-4cb4-b0f1-521f8873aec1,e5b4b327-b3de-4c38-99b2-b681fe0e64af,e0fda041-2c8c-43cc-9d48-7244628c125e,270079639
04/12/2018,21/03/2019,58834977,6,Dispensa de Licitação,https://alexishuf.bitbucket.io/dexa-2020/modalidades.ttl#DispensaDeLicitacao,006032018,26246,153163,http://www.transparencia.gov.br/api-de-dados/contratos/id?id=58834977/58834977,58834977,73717dc1-8725-453d-9328-ed1dd9c6c40a,97d77fc9-392e-4d3b-b6f4-a3aaa138a6ad,262855812,abf9e2a8-561a-4ec5-8b4b-dd20fcafc3d4,9fb26ffa-5769-4bd1-8b4e-582ee3ce84f9,bd8e7876-e4aa-4433-818b-2e32d02d16c1,eb233fee-8bf5-476a-b492-a46f1ac94dc2,a7600432-8c1a-4779-bc75-6ff52312ebfb,be00a21d-0745-4520-83b0-0b07c638e732,97d77fc9-392e-4d3b-b6f4-a3aaa138a6ad,262855812
27/06/2019,15/07/2019,61435604,6,Dispensa de Licitação,https://alexishuf.bitbucket.io/dexa-2020/modalidades.ttl#DispensaDeLicitacao,003572019,26246,153163,http://www.transparencia.gov.br/api-de-dados/contratos/id?id=61435604/61435604,61435604,0343a0c4-b691-4dcf-82f1-1071c5c95bf9,fef9f16a-af19-4edf-8270-58caa8a88611,263555287,1be929bb-9143-459f-b6e0-5cbc72ee8a29,304aad6c-6767-4fa3-bb9a-fda4f13d883e,bd8e7876-e4aa-4433-818b-2e32d02d16c1,2ea244d9-0d77-4c0e-9eb6-bf479daa981e,9379da1b-2eb0-4f58-8cf2-94c311a6f96c,a380daaf-3bc2-4e8a-b5d5-1a250badfb4d,fef9f16a-af19-4edf-8270-58caa8a88611,263555287
04/12/2018,18/01/2019,61935944,6,Dispensa de Licitação,https://alexishuf.bitbucket.io/dexa-2020/modalidades.ttl#DispensaDeLicitacao,006052018,26246,153163,http://www.transparencia.gov.br/api-de-dados/contratos/id?id=61935944/61935944,61935944,b8274e7c-8101-41f2-b958-f0a8a222533b,bcd61acf-ebda-40e3-ae45-c6983f524d73,271255319,7c8ff43e-fddd-449c-8e41-fe4e8deb52ce,b132c383-0bca-429e-8ca2-35901b9f3f07,bd8e7876-e4aa-4433-818b-2e32d02d16c1,a8cb34b3-d1da-4845-a45c-3dc66962d684,e814788b-f2e8-4fec-bf14-ddc3dde7ad61,6d557536-25c5-4bc4-8189-213a268b9bb9,bcd61acf-ebda-40e3-ae45-c6983f524d73,271255319
18/12/2018,02/01/2019,54136323,7,Inexigibilidade de Licitação,https://alexishuf.bitbucket.io/dexa-2020/modalidades.ttl#Inexigibilidade,003812018,26246,150232,http://www.transparencia.gov.br/api-de-dados/contratos/id?id=54136323/54136323,54136323,7cb6a664-01ef-480e-9277-4b8b6b0ca572,9d58bd38-623e-4e59-a3a6-32f1d32ad860,262073992,01000fd0-94a0-49d5-868f-1d0c99b3d308,86980926-eeed-466b-a07c-1d755cc4e857,bd8e7876-e4aa-4433-818b-2e32d02d16c1,309f3e4a-9457-43f0-924d-c3625c95ccc7,cec725dd-1522-41ac-9b59-b4a9e60ef7e6,9a503844-48a9-4ba5-bcc1-9ab32380218d,9d58bd38-623e-4e59-a3a6-32f1d32ad860,262073992
18/12/2018,02/01/2019,51035654,7,Inexigibilidade de Licitação,https://alexishuf.bitbucket.io/dexa-2020/modalidades.ttl#Inexigibilidade,003812018,26246,150232,http://www.transparencia.gov.br/api-de-dados/contratos/id?id=51035654/51035654,51035654,c20943fe-2c59-4d7b-a66b-729f040b80e7,efdbeafa-0134-4794-9800-633c173af76c,262073992,04ea2031-5fa6-4dd6-a920-df8e2b77a7db,e4baf9e4-9d5e-4b2d-9609-94ab3d9fdf13,bd8e7876-e4aa-4433-818b-2e32d02d16c1,1efd0892-c3ac-4521-a6ca-c0b684547e57,9c3b56c0-b678-4541-8f57-1f38314a348b,f835d39b-641e-4c2b-8cc0-3137f1b0db2e,efdbeafa-0134-4794-9800-633c173af76c,262073992
23/05/2019,29/05/2019,54036627,7,Inexigibilidade de Licitação,https://alexishuf.bitbucket.io/dexa-2020/modalidades.ttl#Inexigibilidade,001012019,26246,150232,http://www.transparencia.gov.br/api-de-dados/contratos/id?id=54036627/54036627,54036627,176572eb-8d16-4f09-8cb6-6135ab73c5f1,31c298b7-79be-43f3-8c61-6e1e9a0457ee,269472743,3e1b74c5-f188-48fc-bafe-dd3a4c604154,f8976f00-cabd-430e-95d0-40db1985e15d,bd8e7876-e4aa-4433-818b-2e32d02d16c1,55a70115-bd48-434b-825b-b0afa9327715,7a32838a-12ee-429e-86ae-a3966610d1b3,aad94c70-6ab7-4b59-a601-10d09f4c7695,31c298b7-79be-43f3-8c61-6e1e9a0457ee,269472743
18/12/2018,02/01/2019,57434791,7,Inexigibilidade de Licitação,https://alexishuf.bitbucket.io/dexa-2020/modalidades.ttl#Inexigibilidade,003812018,26246,150232,http://www.transparencia.gov.br/api-de-dados/contratos/id?id=57434791/57434791,57434791,f80f53bc-d51f-4269-91ea-aaf73d9a2529,978032de-0e60-4f4c-b4cd-9cc669778958,262073992,0e8d88c7-ee3a-4f22-b77c-56757ba66c38,984f5fd5-73f7-4014-826b-664203643195,bd8e7876-e4aa-4433-818b-2e32d02d16c1,2e2b2223-64e8-4237-98d6-d603b323e413,bd54e1f7-1596-4126-93bc-ee8297ab23ec,1a226018-cccb-44d1-830e-4222a7e63aca,978032de-0e60-4f4c-b4cd-9cc669778958,262073992
25/06/2019,26/06/2019,61536114,7,Inexigibilidade de Licitação,https://alexishuf.bitbucket.io/dexa-2020/modalidades.ttl#Inexigibilidade,001312019,26246,150232,http://www.transparencia.gov.br/api-de-dados/contratos/id?id=61536114/61536114,61536114,bdd5c60e-b902-4130-8c85-fd2d81cac42b,7381bd8c-4063-4d6f-bdb4-98ed4ddc0c98,269856805,f3bce62c-5559-48f6-9ba1-ccb979f4591c,db31f1d6-beb6-4889-9490-68c4d74db1e7,bd8e7876-e4aa-4433-818b-2e32d02d16c1,77c2a4d9-51b7-4179-bb0b-35380c4f44e4,28569f23-5201-4eb8-a8f6-7f074bcaa43a,264eb41f-cf13-4099-9a69-3e6fecfbdd1b,7381bd8c-4063-4d6f-bdb4-98ed4ddc0c98,269856805
18/03/2019,01/04/2019,49635430,5,Pregão,https://alexishuf.bitbucket.io/dexa-2020/modalidades.ttl#Pregao,000322019,26246,150232,http://www.transparencia.gov.br/api-de-dados/contratos/id?id=49635430/49635430,49635430,40d6ed50-3a0d-4027-bdce-712363a8cee9,15b4f2da-eedd-4568-b37d-a0cc089fca04,273456379,0a5c986a-07e6-41a8-8e0a-48c5c15d1b98,b783321d-88a9-4b0c-94eb-a3017266a594,bd8e7876-e4aa-4433-818b-2e32d02d16c1,a8c1f7e6-a211-416b-b045-eede3d8df94a,bcd7fcdb-3b68-4be1-b5a7-e2902d18f822,6197fe96-108b-423b-bcb2-27f51bdbda10,15b4f2da-eedd-4568-b37d-a0cc089fca04,273456379
